tarea1/circuito2/simulation/qsim/circuito2.msim.vcd
$comment
	File created using the following command:
		vcd file circuito2.msim.vcd -direction
$end
$date
	Mon Sep 09 22:59:55 2024
$end
$version
	ModelSim Version 2020.1
$end
$timescale
	1ps
$end

$scope module circuito2_vlg_vec_tst $end
$var reg 1 ! clk $end
$var reg 1 " inp $end
$var reg 1 # uno $end
$var wire 1 $ outpt $end

$scope module i1 $end
$var wire 1 % gnd $end
$var wire 1 & vcc $end
$var wire 1 ' unknown $end
$var tri1 1 ( devclrn $end
$var tri1 1 ) devpor $end
$var tri1 1 * devoe $end
$var wire 1 + ~QUARTUS_CREATED_GND~I_combout $end
$var wire 1 , ~QUARTUS_CREATED_UNVM~~busy $end
$var wire 1 - ~QUARTUS_CREATED_ADC1~~eoc $end
$var wire 1 . ~QUARTUS_CREATED_ADC2~~eoc $end
$var wire 1 / outpt~output_o $end
$var wire 1 0 clk~input_o $end
$var wire 1 1 clk~inputclkctrl_outclk $end
$var wire 1 2 inp~input_o $end
$var wire 1 3 uno~input_o $end
$var wire 1 4 inst~feeder_combout $end
$var wire 1 5 inst~q $end
$var wire 1 6 inst2~feeder_combout $end
$var wire 1 7 inst2~q $end
$var wire 1 8 inst3~feeder_combout $end
$var wire 1 9 inst3~q $end
$var wire 1 : inst4~q $end
$var wire 1 ; inst5~combout $end
$upscope $end
$upscope $end
$enddefinitions $end
#0
$dumpvars
0!
0"
1#
1$
0%
1&
x'
1(
1)
1*
0+
z,
z-
z.
1/
00
01
02
13
14
05
06
07
08
09
0:
0;
$end
#5000
1!
10
11
#10000
0!
00
01
#15000
1!
10
11
#20000
0!
00
01
#25000
1!
10
11
#30000
0!
00
01
#35000
1!
10
11
#40000
0!
00
01
#45000
1!
10
11
#50000
0!
00
01
#55000
1!
10
11
#60000
0!
00
01
#65000
1!
10
11
#70000
0!
00
01
#75000
1!
10
11
#80000
0!
00
01
#85000
1!
10
11
#90000
0!
00
01
#95000
1!
10
11
#100000
0!
00
01
#105000
1!
10
11
#110000
0!
00
01
#115000
1!
10
11
#120000
0!
00
01
#125000
1!
10
11
#130000
0!
00
01
#135000
1!
10
11
#140000
0!
00
01
#145000
1!
10
11
#150000
0!
00
01
#155000
1!
10
11
#160000
0!
00
01
#165000
1!
10
11
#170000
0!
00
01
#175000
1!
10
11
#180000
0!
00
01
#185000
1!
10
11
#190000
0!
00
01
#195000
1!
10
11
#200000
0!
00
01
#205000
1!
10
11
#210000
0!
00
01
#215000
1!
10
11
#220000
0!
00
01
#225000
1!
10
11
#230000
0!
00
01
#235000
1!
10
11
#240000
0!
00
01
#245000
1!
10
11
#250000
0!
00
01
#255000
1!
10
11
#260000
0!
00
01
#265000
1!
10
11
#270000
0!
00
01
#275000
1!
10
11
#280000
0!
00
01
#285000
1!
10
11
#290000
0!
00
01
#295000
1!
10
11
#300000
0!
00
01
#305000
1!
10
11
#310000
0!
00
01
#315000
1!
10
11
#320000
0!
00
01
#325000
1!
10
11
#330000
0!
00
01
#335000
1!
10
11
#340000
0!
00
01
#345000
1!
10
11
#350000
0!
00
01
#355000
1!
10
11
#360000
0!
00
01
#365000
1!
10
11
#370000
0!
00
01
#375000
1!
10
11
#380000
0!
00
01
#385000
1!
10
11
#390000
0!
00
01
#395000
1!
10
11
#400000
0!
00
01
#405000
1!
10
11
#410000
0!
00
01
#415000
1!
10
11
#420000
0!
00
01
#425000
1!
10
11
#430000
0!
00
01
#435000
1!
10
11
#440000
0!
00
01
#445000
1!
10
11
#450000
0!
00
01
#455000
1!
10
11
#460000
0!
00
01
#465000
1!
10
11
#470000
0!
00
01
#475000
1!
10
11
#480000
0!
00
01
#485000
1!
10
11
#490000
0!
00
01
#495000
1!
10
11
#500000
0!
00
01
#505000
1!
10
11
#510000
0!
00
01
#515000
1!
10
11
#520000
0!
00
01
#525000
1!
10
11
#530000
0!
00
01
#535000
1!
10
11
#540000
0!
00
01
#545000
1!
10
11
#550000
0!
00
01
#555000
1!
10
11
#560000
0!
00
01
#565000
1!
10
11
#570000
0!
00
01
#575000
1!
10
11
#580000
0!
00
01
#585000
1!
10
11
#590000
0!
00
01
#595000
1!
10
11
#600000
0!
00
01
#605000
1!
10
11
#610000
0!
00
01
#615000
1!
10
11
#620000
0!
00
01
#625000
1!
10
11
#630000
0!
00
01
#635000
1!
10
11
#640000
0!
00
01
#645000
1!
10
11
#650000
0!
00
01
#655000
1!
10
11
#660000
0!
00
01
#665000
1!
10
11
#670000
0!
00
01
#675000
1!
10
11
#680000
0!
00
01
#685000
1!
10
11
#690000
0!
00
01
#695000
1!
10
11
#700000
0!
00
01
#705000
1!
10
11
#710000
0!
00
01
#715000
1!
10
11
#720000
0!
00
01
#725000
1!
10
11
#730000
0!
00
01
#735000
1!
10
11
#740000
0!
00
01
#745000
1!
10
11
#750000
0!
00
01
#755000
1!
10
11
#760000
0!
00
01
#765000
1!
10
11
#770000
0!
00
01
#775000
1!
10
11
#780000
0!
00
01
#785000
1!
10
11
#790000
0!
00
01
#795000
1!
10
11
#800000
0!
00
01
#805000
1!
10
11
#810000
0!
00
01
#815000
1!
10
11
#820000
0!
00
01
#825000
1!
10
11
#830000
0!
00
01
#835000
1!
10
11
#840000
0!
00
01
#845000
1!
10
11
#850000
0!
00
01
#855000
1!
10
11
#860000
0!
00
01
#865000
1!
10
11
#870000
0!
00
01
#875000
1!
10
11
#880000
0!
00
01
#885000
1!
10
11
#890000
0!
00
01
#895000
1!
10
11
#900000
0!
00
01
#905000
1!
10
11
#910000
0!
00
01
#915000
1!
10
11
#920000
0!
00
01
#925000
1!
10
11
#930000
0!
00
01
#935000
1!
10
11
#940000
0!
00
01
#945000
1!
10
11
#950000
0!
00
01
#955000
1!
10
11
#960000
0!
00
01
#965000
1!
10
11
#970000
0!
00
01
#975000
1!
10
11
#980000
0!
00
01
#985000
1!
10
11
#990000
0!
00
01
#995000
1!
10
11
